Chapter 16 Class Activity 10 | Stat 220 Introduction to Data Science
…
# A tibble: 2 × 2
  grade_lumped     n
  <fct>        <int>
1 9th             10
2 Others          14

16.2 Your Turn 2

Lets import the gss_cat dataset from the forcats library. This datast contains a sample of categorical variables from the General Social survey.

# import gss_cat dataset from forcats library
forcats::gss_cat

# A tibble: 21,483 × 9
    year marital       age race  rincome partyid relig denom
   <int> <fct>       <int> <fct> <fct>   <fct>   <fct> <fct>
 1  2000 Never marr…    26 White $8000 … Ind,ne… Prot… Sout…
 2  2000 Divorced       48 White $8000 … Not st… Prot… Bapt…
 3  2000 Widowed        67 White Not ap… Indepe… Prot… No d…
 4  2000 Never marr…    39 White Not ap… Ind,ne… Orth… Not …
 5  2000 Divorced       25 White Not ap… Not st… None  Not …
 6  2000 Married        25 White $20000… Strong… Prot… Sout…
 7  2000 Never marr…    36 White $25000… Not st… Chri… Not …
 8  2000 Divorced       44 White $7000 … Ind,ne… Prot… Luth…
 9  2000 Married        44 White $25000… Not st… Prot… Other
10  2000 Married        47 White $25000… Strong… Prot… Sout…
# … with 21,473 more rows, and 1 more variable:
#   tvhours <int>
…
