…
```r
qdf <- energy %>% select(9:90) %>%
  map_dfc(quantile, probs = seq(.1,.9,.1), na.rm = TRUE) %>%  
  mutate(stat = str_c("quantile_", seq(10,90,10))) %>%   
  pivot_longer(names_to = "building", values_to = "quantiles", 1:82)
qdf
```

```
# A tibble: 738 × 3
   stat        building                         quantiles
   <chr>       <chr>                                <dbl>
 1 quantile_10 100_Nevada_Street                   0.0972
 2 quantile_10 104_Maple_St.                       1.04  
 3 quantile_10 106_Winona_St.                      0.601 
 4 quantile_10 Allen_House                         0.756 
 5 quantile_10 Alumni_Guest_House/Johnson_House   17.0   
 6 quantile_10 Arboretum_Office                    0.13  
 7 quantile_10 Art_Studios                         0.23  
 8 quantile_10 Benton_House                        1.59  
 9 quantile_10 Berg_House                          1.06  
10 quantile_10 Bird_House                          1.42  
# ℹ 728 more rows
```
…
