Chapter 23 Class Activity 17 | Stat 220 Introduction to Data Science
…
   user  system elapsed 
  1.602   0.063   8.673 

df2_final <- bind_rows(df2)
df2_final

# A tibble: 582 × 9
   team_name        year  wins  losses ot_losses win_percent
   <chr>            <chr> <chr> <chr>  <chr>     <chr>      
 1 Boston Bruins    1990  44    24     <NA>      0.55       
 2 Buffalo Sabres   1990  31    30     <NA>      0.388      
 3 Calgary Flames   1990  46    26     <NA>      0.575      
 4 Chicago Blackha… 1990  49    23     <NA>      0.613      
 5 Detroit Red Win… 1990  34    38     <NA>      0.425      
 6 Edmonton Oilers  1990  37    37     <NA>      0.463      
 7 Hartford Whalers 1990  31    38     <NA>      0.388      
 8 Los Angeles Kin… 1990  46    24     <NA>      0.575      
 9 Minnesota North… 1990  27    39     <NA>      0.338      
10 Montreal Canadi… 1990  39    30     <NA>      0.487      
# ℹ 572 more rows
# ℹ 3 more variables: goals_for_gf <chr>,
#   goals_against_ga <chr>, x <chr>
…
end_time <- proc.time() # Capture end time
end_time - start_time # Calculate duration

   user  system elapsed 
  1.603   0.055   8.971 

sports_data

# A tibble: 582 × 9
   team_name        year  wins  losses ot_losses win_percent
   <chr>            <chr> <chr> <chr>  <chr>     <chr>      
 1 Boston Bruins    1990  44    24     <NA>      0.55       
 2 Buffalo Sabres   1990  31    30     <NA>      0.388      
 3 Calgary Flames   1990  46    26     <NA>      0.575      
 4 Chicago Blackha… 1990  49    23     <NA>      0.613      
 5 Detroit Red Win… 1990  34    38     <NA>      0.425      
 6 Edmonton Oilers  1990  37    37     <NA>      0.463      
 7 Hartford Whalers 1990  31    38     <NA>      0.388      
 8 Los Angeles Kin… 1990  46    24     <NA>      0.575      
 9 Minnesota North… 1990  27    39     <NA>      0.338      
10 Montreal Canadi… 1990  39    30     <NA>      0.487      
# ℹ 572 more rows
# ℹ 3 more variables: goals_for_gf <chr>,
#   goals_against_ga <chr>, x <chr>
…
