Chapter 15 Class Activity 9 | Stat 220 Introduction to Data Science
…
Click for answer
Answer: Based on the output of glimpse, we can see that the ‘technical’ column should be a numeric column and the ‘uk_airdate’ column should be a date column. We can also identify any issues with missing values.

# your r-code

desserts <- read_csv(url,
  col_types = list(
    technical = col_number(),
    uk_airdate = col_date()
  )
)

problems(desserts)

# A tibble: 556 × 5
     row   col expected        actual         file 
   <int> <int> <chr>           <chr>          <chr>
 1     2     6 date in ISO8601 17 August 2010 ""   
 2     3     6 date in ISO8601 17 August 2010 ""   
 3     4     6 date in ISO8601 17 August 2010 ""   
 4     5     4 a number        N/A            ""   
 5     5     6 date in ISO8601 17 August 2010 ""   
 6     6     6 date in ISO8601 17 August 2010 ""   
 7     7     4 a number        N/A            ""   
 8     7     6 date in ISO8601 17 August 2010 ""   
 9     8     6 date in ISO8601 17 August 2010 ""   
10     9     4 a number        N/A            ""   
# ℹ 546 more rows

15.1.3 c) Import the dataset with correct data types, if needed. Fix the problems, if any.

Click for answer

desserts <- read_csv(url,
  col_types = list(
    technical = col_number(),
    uk_airdate = col_date()
  )
)

problems(desserts)

# A tibble: 556 × 5
     row   col expected        actual         file 
   <int> <int> <chr>           <chr>          <chr>
 1     2     6 date in ISO8601 17 August 2010 ""   
 2     3     6 date in ISO8601 17 August 2010 ""   
 3     4     6 date in ISO8601 17 August 2010 ""   
 4     5     4 a number        N/A            ""   
 5     5     6 date in ISO8601 17 August 2010 ""   
 6     6     6 date in ISO8601 17 August 2010 ""   
 7     7     4 a number        N/A            ""   
 8     7     6 date in ISO8601 17 August 2010 ""   
 9     8     6 date in ISO8601 17 August 2010 ""   
10     9     4 a number        N/A            ""   
# ℹ 546 more rows
…
