…
Use Boolean operators to alter the code below to return only the rows that contain:

### a. Girls named Rhea

<details>
<summary class="answer">Click for answer</summary>


```r
filter(babynames, name == "Rhea", sex == "F")
```

```
# A tibble: 136 × 5
    year sex   name      n      prop
   <dbl> <chr> <chr> <int>     <dbl>
 1  1882 F     Rhea      7 0.0000605
 2  1883 F     Rhea      8 0.0000666
 3  1884 F     Rhea     13 0.0000945
 4  1885 F     Rhea     11 0.0000775
 5  1886 F     Rhea     13 0.0000846
 6  1887 F     Rhea     14 0.0000901
 7  1888 F     Rhea     20 0.000106 
 8  1889 F     Rhea     31 0.000164 
 9  1890 F     Rhea     39 0.000193 
10  1891 F     Rhea     24 0.000122 
# … with 126 more rows
```

```r
babynames %>%  filter(name == "Rhea", sex == "F")
```

```
# A tibble: 136 × 5
    year sex   name      n      prop
   <dbl> <chr> <chr> <int>     <dbl>
 1  1882 F     Rhea      7 0.0000605
 2  1883 F     Rhea      8 0.0000666
 3  1884 F     Rhea     13 0.0000945
 4  1885 F     Rhea     11 0.0000775
 5  1886 F     Rhea     13 0.0000846
 6  1887 F     Rhea     14 0.0000901
 7  1888 F     Rhea     20 0.000106 
 8  1889 F     Rhea     31 0.000164 
 9  1890 F     Rhea     39 0.000193 
10  1891 F     Rhea     24 0.000122 
# … with 126 more rows
```

</details>

### b. Names that were used by exactly 5 or 6 children in 1990

<details>
<summary class="answer">Click for answer</summary>


```r
filter(babynames, year == 1990, n == 5 | n == 6)
```

```
# A tibble: 6,144 × 5
    year sex   name         n       prop
   <dbl> <chr> <chr>    <int>      <dbl>
 1  1990 F     Aariel       6 0.00000292
 2  1990 F     Aarion       6 0.00000292
 3  1990 F     Abagael      6 0.00000292
 4  1990 F     Abbye        6 0.00000292
 5  1990 F     Abiola       6 0.00000292
 6  1990 F     Abreanna     6 0.00000292
 7  1990 F     Abygail      6 0.00000292
 8  1990 F     Acadia       6 0.00000292
 9  1990 F     Adilenne     6 0.00000292
10  1990 F     Adriena      6 0.00000292
# … with 6,134 more rows
```

```r
babynames %>% filter(year == "1990", n == 5 | n == 6)
```

```
# A tibble: 6,144 × 5
    year sex   name         n       prop
   <dbl> <chr> <chr>    <int>      <dbl>
 1  1990 F     Aariel       6 0.00000292
 2  1990 F     Aarion       6 0.00000292
 3  1990 F     Abagael      6 0.00000292
 4  1990 F     Abbye        6 0.00000292
 5  1990 F     Abiola       6 0.00000292
 6  1990 F     Abreanna     6 0.00000292
 7  1990 F     Abygail      6 0.00000292
 8  1990 F     Acadia       6 0.00000292
 9  1990 F     Adilenne     6 0.00000292
10  1990 F     Adriena      6 0.00000292
# … with 6,134 more rows
```

</details>

### c. Names that are one of Apple, Yoroi, Ada

<details>
<summary class="answer">Click for answer</summary>


```r
filter(babynames, name == "Apple" | name == "Yoroi" | name == "Ada")
```

```
# A tibble: 200 × 5
    year sex   name      n      prop
   <dbl> <chr> <chr> <int>     <dbl>
 1  1880 F     Ada     652 0.00668  
 2  1881 F     Ada     628 0.00635  
 3  1882 F     Ada     689 0.00596  
 4  1883 F     Ada     778 0.00648  
 5  1884 F     Ada     854 0.00621  
 6  1885 F     Ada     876 0.00617  
 7  1885 M     Ada       5 0.0000431
 8  1886 F     Ada     915 0.00595  
 9  1886 M     Ada       6 0.0000504
10  1887 F     Ada     910 0.00586  
# … with 190 more rows
```
</details>

### d. Store the data tibble in part c into a new tibble and change all the character columns to upper case. Also, rename the `n` variable to `count`.

<details>
<summary class="answer">Click for answer</summary>


```r
aya <- babynames %>% filter(name == "Apple" | name == "Yoroi" | name == "Ada")
aya %>% mutate_if(is.character, toupper)
```

```
# A tibble: 200 × 5
    year sex   name      n      prop
   <dbl> <chr> <chr> <int>     <dbl>
 1  1880 F     ADA     652 0.00668  
 2  1881 F     ADA     628 0.00635  
 3  1882 F     ADA     689 0.00596  
 4  1883 F     ADA     778 0.00648  
 5  1884 F     ADA     854 0.00621  
 6  1885 F     ADA     876 0.00617  
 7  1885 M     ADA       5 0.0000431
 8  1886 F     ADA     915 0.00595  
 9  1886 M     ADA       6 0.0000504
10  1887 F     ADA     910 0.00586  
# … with 190 more rows
```

```r
aya %>% mutate_at(vars(name), toupper)
```

```
# A tibble: 200 × 5
    year sex   name      n      prop
   <dbl> <chr> <chr> <int>     <dbl>
 1  1880 F     ADA     652 0.00668  
 2  1881 F     ADA     628 0.00635  
 3  1882 F     ADA     689 0.00596  
 4  1883 F     ADA     778 0.00648  
 5  1884 F     ADA     854 0.00621  
 6  1885 F     ADA     876 0.00617  
 7  1885 M     ADA       5 0.0000431
 8  1886 F     ADA     915 0.00595  
 9  1886 M     ADA       6 0.0000504
10  1887 F     ADA     910 0.00586  
# … with 190 more rows
```

```r
aya %>% rename(count = n)
```

```
# A tibble: 200 × 5
    year sex   name  count      prop
   <dbl> <chr> <chr> <int>     <dbl>
 1  1880 F     Ada     652 0.00668  
 2  1881 F     Ada     628 0.00635  
 3  1882 F     Ada     689 0.00596  
 4  1883 F     Ada     778 0.00648  
 5  1884 F     Ada     854 0.00621  
 6  1885 F     Ada     876 0.00617  
 7  1885 M     Ada       5 0.0000431
 8  1886 F     Ada     915 0.00595  
 9  1886 M     Ada       6 0.0000504
10  1887 F     Ada     910 0.00586  
# … with 190 more rows
```

</details>

### e. Change all the column names to upper case in the previous problem.

<details>
<summary class="answer">Click for answer</summary>


```r
aya %>% rename_at(vars(year:prop), toupper)
```

```
# A tibble: 200 × 5
    YEAR SEX   NAME      N      PROP
   <dbl> <chr> <chr> <int>     <dbl>
 1  1880 F     Ada     652 0.00668  
 2  1881 F     Ada     628 0.00635  
 3  1882 F     Ada     689 0.00596  
 4  1883 F     Ada     778 0.00648  
 5  1884 F     Ada     854 0.00621  
 6  1885 F     Ada     876 0.00617  
 7  1885 M     Ada       5 0.0000431
 8  1886 F     Ada     915 0.00595  
 9  1886 M     Ada       6 0.0000504
10  1887 F     Ada     910 0.00586  
# … with 190 more rows
```
…
<details>
<summary class="answer">Click for answer</summary>


```r
all_info <- artists %>% 
  full_join(bands, by = c("first", "last")) %>% 
  full_join(songs, by = c("first", "last")) %>% 
  full_join(albums, by = c("album", "band")) %>%
  full_join(labels, by = c("album"))
all_info
```

```
# A tibble: 30 × 8
   first  last      instrument band  song  album  year label
   <chr>  <chr>     <chr>      <chr> <chr> <chr> <dbl> <chr>
 1 Jimmy  Buffett   Guitar     The … <NA>  <NA>     NA <NA> 
 2 George Harrison  Guitar     The … <NA>  <NA>     NA <NA> 
 3 Mick   Jagger    Vocals     The … <NA>  <NA>     NA <NA> 
 4 Tom    Jones     Vocals     <NA>  It's… Alon…    NA <NA> 
 5 Davy   Jones     Vocals     <NA>  <NA>  <NA>     NA <NA> 
 6 John   Lennon    Guitar     The … Come… Abbe…  1969 Apple
 7 Paul   McCartney Bass       The … Hell… Magi…  1967 Parl…
 8 Jimmy  Page      Guitar     Led … <NA>  <NA>     NA <NA> 
 9 Joe    Perry     Guitar     <NA>  <NA>  <NA>     NA <NA> 
10 Elvis  Presley   Vocals     <NA>  <NA>  <NA>     NA <NA> 
# … with 20 more rows
```
…
