Chapter 22 Class Activity 16 | Stat 220 Introduction to Data Science
…
url <- "https://realpython.github.io/fake-jobs/"

Click for answer

title <- bow(url) %>% scrape() %>% html_elements(css = ".is-5") %>% html_text()   # part 1
company <- bow(url) %>% scrape() %>% html_elements(css = ".company") %>% html_text() # part 2
location <- bow(url) %>% scrape() %>% html_elements(css = ".location") %>% html_text() %>% str_trim() # part 3
time <- bow(url) %>% scrape() %>% html_elements(css = "time") %>% html_text() # part 4
html <- bow(url) %>% scrape() %>%  html_element(css = ".card-footer-item+ .card-footer-item") %>% html_attr("href")  # part 5

# Create a dataframe
tibble(title = title, company = company, location = location, time = time, html = html) # port 6

# A tibble: 100 × 5
   title                     company    location time  html 
   <chr>                     <chr>      <chr>    <chr> <chr>
 1 Senior Python Developer   Payne, Ro… Stewart… 2021… http…
 2 Energy engineer           Vasquez-D… Christo… 2021… http…
 3 Legal executive           Jackson, … Port Er… 2021… http…
 4 Fitness centre manager    Savage-Br… East Se… 2021… http…
 5 Product manager           Ramirez I… North J… 2021… http…
 6 Medical technical officer Rogers-Ya… Davidvi… 2021… http…
 7 Physiological scientist   Kramer-Kl… South C… 2021… http…
 8 Textile designer          Meyers-Jo… Port Jo… 2021… http…
 9 Television floor manager  Hughes-Wi… Osborne… 2021… http…
10 Waste management officer  Jones, Wi… Scottto… 2021… http…
# ℹ 90 more rows
…
