…
There are 1924665 cases and 5 variables in the dataset `babynames`.

Let's use the package tidyverse to do some exploratory data analysis.


```r
#install.packages("tidyverse")   # uncomment to install
library(tidyverse)
babynames %>% filter(name=='Aimee')
```

```
# A tibble: 150 x 5
    year sex   name      n      prop
   <dbl> <chr> <chr> <int>     <dbl>
 1  1880 F     Aimee    13 0.000133 
 2  1881 F     Aimee    11 0.000111 
 3  1882 F     Aimee    13 0.000112 
 4  1883 F     Aimee    11 0.0000916
 5  1884 F     Aimee    15 0.000109 
 6  1885 F     Aimee    17 0.000120 
 7  1886 F     Aimee    17 0.000111 
 8  1887 F     Aimee    18 0.000116 
 9  1888 F     Aimee    12 0.0000633
10  1889 F     Aimee    16 0.0000846
# ... with 140 more rows
```
…
